…
``` r
fco2_recipe <- recipe(FCO2 ~ ., 
                      data = fco2_train %>% 
                        select(cultura, manejo, cobertura, FCO2:HLIFS,XCO2,SIF,Tmed:inso) 
) %>%  
  step_normalize(all_numeric_predictors())  %>% 
  step_novel(all_nominal_predictors()) %>% 
  step_zv(all_predictors()) %>%
  #step_naomit(c(Ts, Us)) %>% 
  step_impute_median(where(is.numeric)) %>% # inputação da mediana nos numéricos
  #step_poly(c(Us,Ts), degree = 2)  %>%  
  step_dummy(all_nominal_predictors())
bake(prep(fco2_recipe), new_data = NULL)
#> # A tibble: 2,676 x 49
#>         Ts      Us      pH       MO      P       K      Ca      Mg   H_Al     SB
#>      <dbl>   <dbl>   <dbl>    <dbl>  <dbl>   <dbl>   <dbl>   <dbl>  <dbl>  <dbl>
#>  1  0.0801 -0.386  -0.671   0.751   -0.441 -0.539  -0.674  -1.26    1.25  -1.01 
#>  2 -0.0121 -0.834   0.619   0.109    0.560 -0.739  -0.198   0.239  -1.09  -0.155
#>  3  0.370  -0.116  -0.187   1.18    -0.942 -0.389   0.0873  0.613  -0.129  0.233
#>  4  0.449  -0.383  -0.0262  0.00189 -0.691 -0.739  -0.674  -0.696  -0.939 -0.835
#>  5 -1.96    1.75   -0.510  -0.640    1.48  -0.239  -0.198   0.0519  0.471 -0.155
#>  6  0.765   0.0189 -0.0262  1.18    -0.274 -0.189   0.468   1.36   -0.429  0.804
#>  7 -0.776   1.64   -0.832  -0.533    0.393 -0.689  -0.769  -1.63    1.25  -1.24 
#>  8 -0.0121 -1.24    0.619   0.109    0.560 -0.739  -0.198   0.239  -1.09  -0.155
#>  9  0.225  -0.826  -0.0262  0.00189 -0.691 -0.739  -0.674  -0.696  -0.939 -0.835
#> 10 -2.36    0.829  -0.0262 -0.533    1.73  -0.0389  1.42    0.0519 -0.129  1.03 
#> # ... with 2,666 more rows, and 39 more variables: CTC <dbl>, V <dbl>,
#> #   Ds <dbl>, Macro <dbl>, Micro <dbl>, VTP <dbl>, PLA <dbl>, AT <dbl>,
#> #   SILTE <dbl>, ARG <dbl>, HLIFS <dbl>, XCO2 <dbl>, SIF <dbl>, Tmed <dbl>,
#> #   Tmax <dbl>, Tmin <dbl>, Umed <dbl>, Umax <dbl>, Umin <dbl>, PkPa <dbl>,
#> #   Rad <dbl>, PAR <dbl>, Eto <dbl>, Velmax <dbl>, Velmin <dbl>, Dir_vel <dbl>,
#> #   chuva <dbl>, inso <dbl>, FCO2 <dbl>, cultura_eucalipto <dbl>,
#> #   cultura_mata.ciliar <dbl>, cultura_pasto <dbl>, cultura_pinus <dbl>, ...
```
…
