README
…
### data prep

fco2_recipe <- recipe(FCO2 ~ ., 
                      data = fco2_train %>% 
                        select(cultura, manejo, cobertura, FCO2:HLIFS)
) %>%  
  step_normalize(all_numeric_predictors())  %>% 
  step_novel(all_nominal_predictors()) %>% 
  step_zv(all_predictors()) %>%
  #step_naomit(c(Ts, Us)) %>% 
  step_impute_median(where(is.numeric)) %>% # inputao da mediana nos numricos
  #step_poly(c(Us,Ts), degree = 2)  %>%  
  step_dummy(all_nominal_predictors())
bake(prep(fco2_recipe), new_data = NULL)
#> # A tibble: 11,547 x 43
#>        Ts     Us     pH      MO       P       K      Ca      Mg   H_Al      SB
#>     <dbl>  <dbl>  <dbl>   <dbl>   <dbl>   <dbl>   <dbl>   <dbl>  <dbl>   <dbl>
#>  1 -0.862  1.67  -0.117 -1.50    1.59   -0.909  -0.885  -1.61   -1.49  -1.19  
#>  2  0.119 -0.482 -0.117 -1.56    2.86   -1.02   -1.01   -1.69   -1.53  -1.31  
#>  3  0.195 -0.592 -0.378 -1.16    0.435   0.997  -0.418   0.337   0.845 -0.0945
#>  4 -0.889 -0.243 -0.117  0.114  -0.239  -0.316  -0.418  -0.0164 -0.162 -0.295 
#>  5  0.908 -0.544 -0.291  0.512  -0.639  -0.361  -0.0721  0.691   0.574  0.106 
#>  6  0.245  1.59  -0.464  0.830  -0.719  -0.0898 -0.764  -0.370   1.12  -0.665 
#>  7 -2.86   0.821  0.926 -0.761   0.634  -0.452   4.01    1.58   -0.544  3.30  
#>  8  0.462  0.538  0.144  0.0346  0.0373  1.72    1.10    0.691   0.167  1.19  
#>  9  0.127  2.58  -0.117  0.114  -0.239  -0.316  -0.418  -0.0164 -0.162 -0.295 
#> 10 -0.887 -0.596 -0.117  0.114  -0.239  -0.316  -0.418  -0.0164 -0.162 -0.295 
#> # ... with 11,537 more rows, and 33 more variables: CTC <dbl>, V <dbl>,
#> #   Ds <dbl>, Macro <dbl>, Micro <dbl>, VTP <dbl>, PLA <dbl>, AT <dbl>,
#> #   SILTE <dbl>, ARG <dbl>, HLIFS <dbl>, FCO2 <dbl>, cultura_cerrado <dbl>,
#> #   cultura_eucalipto <dbl>, cultura_feijao <dbl>, cultura_mata.ciliar <dbl>,
#> #   cultura_milho <dbl>, cultura_milho_soja <dbl>, cultura_pasto <dbl>,
#> #   cultura_pinus <dbl>, cultura_silvipastoril <dbl>, cultura_soja <dbl>,
#> #   cultura_new <dbl>, manejo_cana_queimada <dbl>, ...
…
