…
fco2_recipe <- recipe(FCO2 ~ ., 
                      data = fco2_train %>% 
                        select(cultura, manejo, cobertura, FCO2:HLIFS,XCO2,SIF,Tmed:inso) 
) %>%  
  step_normalize(all_numeric_predictors())  %>% 
  step_novel(all_nominal_predictors()) %>% 
  step_zv(all_predictors()) %>%
  #step_naomit(c(Ts, Us)) %>% 
  step_impute_median(where(is.numeric)) %>% # inputação da mediana nos numéricos
  #step_poly(c(Us,Ts), degree = 2)  %>%  
  step_dummy(all_nominal_predictors())
bake(prep(fco2_recipe), new_data = NULL)
```

    ## # A tibble: 2,676 x 49
    ##         Ts      Us     pH      MO      P      K       Ca      Mg   H_Al     SB
    ##      <dbl>   <dbl>  <dbl>   <dbl>  <dbl>  <dbl>    <dbl>   <dbl>  <dbl>  <dbl>
    ##  1  0.513   0.968  -0.833  0.826  -0.759 -0.591 -0.875   -1.62    1.26  -1.30 
    ##  2 -0.505   0.271  -0.668 -0.877   1.24   4.70  -0.582   -0.138   1.26   0.192
    ##  3 -0.427  -1.16    1.14   0.613  -1.01  -0.739  0.00303  0.601  -1.11   0.123
    ##  4  0.422  -0.822   2.63   0.294  -0.842 -0.640  2.93     0.601  -1.72   2.20 
    ##  5  0.108  -0.117  -0.503  0.507  -1.01  -0.690 -0.485   -1.25    0.226 -0.903
    ##  6  0.761  -1.35    0.320 -0.0254 -1.26  -0.739 -0.387   -0.323  -0.957 -0.497
    ##  7  0.592   0.0185 -0.503  0.932  -1.18  -0.343 -0.387    0.0465  0.226 -0.304
    ##  8  0.944  -0.822  -0.997 -0.877   1.16   0.844 -0.582   -0.508   1.26  -0.483
    ##  9  0.0562  1.16   -0.668 -0.877   1.24   4.70  -0.582   -0.138   1.26   0.192
    ## 10  0.892  -1.22    1.14   0.613  -1.01  -0.739  0.00303  0.601  -1.11   0.123
    ## # i 2,666 more rows
    ## # i 39 more variables: CTC <dbl>, V <dbl>, Ds <dbl>, Macro <dbl>, Micro <dbl>,
    ## #   VTP <dbl>, PLA <dbl>, AT <dbl>, SILTE <dbl>, ARG <dbl>, HLIFS <dbl>,
    ## #   XCO2 <dbl>, SIF <dbl>, Tmed <dbl>, Tmax <dbl>, Tmin <dbl>, Umed <dbl>,
    ## #   Umax <dbl>, Umin <dbl>, PkPa <dbl>, Rad <dbl>, PAR <dbl>, Eto <dbl>,
    ## #   Velmax <dbl>, Velmin <dbl>, Dir_vel <dbl>, chuva <dbl>, inso <dbl>,
    ## #   FCO2 <dbl>, cultura_eucalipto <dbl>, cultura_mata.ciliar <dbl>, ...
…
