…
                      data = fco2_train %>% 
            select(fco2:hlifs,xco2,sif,tmed:inso) 
) %>%  
  # step_normalize(all_numeric_predictors())  %>% 
  step_naomit() %>%  
  step_novel(all_nominal_predictors()) %>% 
  step_zv(all_predictors()) %>%
  step_naomit(c(ts, us)) %>% 
  step_impute_median(where(is.numeric)) %>% # inputação da mediana nos numéricos
  # step_poly(c(Us,Ts), degree = 2)  %>%  
  step_dummy(all_nominal_predictors())
bake(prep(fco2_recipe), new_data = NULL)
```

    ## # A tibble: 852 × 39
    ##       ts    us   p_h    mo     p     k    ca    mg  h_al    sb   ctc     v    ds
    ##    <dbl> <dbl> <dbl> <dbl> <dbl> <dbl> <dbl> <dbl> <dbl> <dbl> <dbl> <dbl> <dbl>
    ##  1   3   21.8    4.1     4    19   0.4     6     7    88  13.4 101.   13    1.62
    ##  2  22.1  4.4    6.5    23    16   1.2    45    22     0  68.2  79.2  86.1  1.4 
    ##  3  12.6  8.8    6.5    23    16   1.2    45    22     0  68.2  79.2  86.1  1.4 
    ##  4  22.3  4.06   4.8    15    15   0.6     7     9    20  16.6  36.6  45    1.68
    ##  5   4   20.3    3.9     4    17   0.2     4     2    64   6.2  70.2   9    1.6 
    ##  6  21.7  4.14   5.7    18     3   0.8    18    18    12  36.8  48.8  75    1.6 
    ##  7  28.8  9.5    4.9    10     2   0.4     7     4     0  11.4  26.4  43.2  1.53
    ##  8  11.7 10.3    5.4    12     4   0.4    12     5     0  17.4  30.4  57.2  1.71
    ##  9  22.1  3.3    5.2    10     2   0.3    11     5     0  16.3  28.3  57.6  1.56
    ## 10  17.4  2.3    5.3    13     3   0.3     9     5     0  14.3  29.3  48.8  1.63
    ## # ℹ 842 more rows
    ## # ℹ 26 more variables: macro <dbl>, micro <dbl>, vtp <dbl>, pla <dbl>,
    ## #   at <dbl>, silte <dbl>, arg <dbl>, hlifs <dbl>, xco2 <dbl>, sif <dbl>,
    ## #   tmed <dbl>, tmax <dbl>, tmin <dbl>, umed <dbl>, umax <dbl>, umin <dbl>,
    ## #   pk_pa <dbl>, rad <dbl>, par <dbl>, eto <dbl>, velmax <dbl>, velmin <dbl>,
    ## #   dir_vel <dbl>, chuva <dbl>, inso <dbl>, fco2 <dbl>
…
``` r
collect_metrics(fco2_nn_tune_grid)
```

    ## # A tibble: 84 × 9
    ##    hidden_units penalty epochs .metric .estimator  mean     n std_err .config   
    ##           <dbl>   <dbl>  <dbl> <chr>   <chr>      <dbl> <int>   <dbl> <chr>     
    ##  1            1       1    100 rmse    standard    1.54     5  0.123  Preproces…
    ##  2            2       1    100 rmse    standard    1.38     5  0.0894 Preproces…
    ##  3            3       1    100 rmse    standard    1.49     5  0.0734 Preproces…
    ##  4            4       1    100 rmse    standard    1.49     5  0.0488 Preproces…
    ##  5            5       1    100 rmse    standard    1.48     5  0.0782 Preproces…
    ##  6            6       1    100 rmse    standard    1.44     5  0.0594 Preproces…
    ##  7            7       1    100 rmse    standard    1.44     5  0.0618 Preproces…
    ##  8            1       5    100 rmse    standard    1.57     5  0.156  Preproces…
    ##  9            2       5    100 rmse    standard    1.42     5  0.0572 Preproces…
    ## 10            3       5    100 rmse    standard    1.44     5  0.0830 Preproces…
    ## # ℹ 74 more rows
…
``` r
collect_metrics(fco2_svm_tune_grid)
```

    ## # A tibble: 128 × 9
    ##       cost rbf_sigma margin .metric .estimator  mean     n std_err .config      
    ##      <dbl>     <dbl>  <dbl> <chr>   <chr>      <dbl> <int>   <dbl> <chr>        
    ##  1  0.01       0.001  0.001 rmse    standard    1.92     5  0.0751 Preprocessor…
    ##  2  0.0625     0.001  0.001 rmse    standard    1.80     5  0.0780 Preprocessor…
    ##  3  0.1        0.001  0.001 rmse    standard    1.74     5  0.0778 Preprocessor…
    ##  4  0.5        0.001  0.001 rmse    standard    1.48     5  0.0686 Preprocessor…
    ##  5  1          0.001  0.001 rmse    standard    1.39     5  0.0641 Preprocessor…
    ##  6 10          0.001  0.001 rmse    standard    1.22     5  0.0568 Preprocessor…
    ##  7 20          0.001  0.001 rmse    standard    1.18     5  0.0504 Preprocessor…
    ##  8 50          0.001  0.001 rmse    standard    1.14     5  0.0470 Preprocessor…
    ##  9  0.01       0.01   0.001 rmse    standard    1.79     5  0.0775 Preprocessor…
    ## 10  0.0625     0.01   0.001 rmse    standard    1.48     5  0.0687 Preprocessor…
    ## # ℹ 118 more rows
…
``` r
collect_metrics(fco2_svml_tune_grid)
```

    ## # A tibble: 40 × 8
    ##       cost margin .metric .estimator  mean     n std_err .config              
    ##      <dbl>  <dbl> <chr>   <chr>      <dbl> <int>   <dbl> <chr>                
    ##  1  0.01    0.175 rmse    standard    1.29     5  0.0594 Preprocessor1_Model01
    ##  2  0.0625  0.175 rmse    standard    1.25     5  0.0556 Preprocessor1_Model02
    ##  3  0.1     0.175 rmse    standard    1.24     5  0.0519 Preprocessor1_Model03
    ##  4  0.5     0.175 rmse    standard    1.23     5  0.0468 Preprocessor1_Model04
    ##  5  1       0.175 rmse    standard    1.23     5  0.0455 Preprocessor1_Model05
    ##  6 10       0.175 rmse    standard    1.23     5  0.0430 Preprocessor1_Model06
    ##  7 20       0.175 rmse    standard    1.23     5  0.0427 Preprocessor1_Model07
    ##  8 50       0.175 rmse    standard    1.23     5  0.0426 Preprocessor1_Model08
    ##  9  0.01    0.5   rmse    standard    1.29     5  0.0568 Preprocessor1_Model09
    ## 10  0.0625  0.5   rmse    standard    1.22     5  0.0489 Preprocessor1_Model10
    ## # ℹ 30 more rows
…
``` r
collect_metrics(fco2_dt_tune_grid)
```

    ## # A tibble: 72 × 9
    ##    cost_complexity tree_depth min_n .metric .estimator  mean     n std_err
    ##              <dbl>      <dbl> <dbl> <chr>   <chr>      <dbl> <int>   <dbl>
    ##  1       0.1                2     2 rmse    standard    1.59     5  0.0283
    ##  2       0.01               2     2 rmse    standard    1.47     5  0.0474
    ##  3       0.001              2     2 rmse    standard    1.47     5  0.0474
    ##  4       0.00001            2     2 rmse    standard    1.47     5  0.0474
    ##  5       0.000001           2     2 rmse    standard    1.47     5  0.0474
    ##  6       0.0000001          2     2 rmse    standard    1.47     5  0.0474
    ##  7       0.1                5     2 rmse    standard    1.41     5  0.0900
    ##  8       0.01               5     2 rmse    standard    1.15     5  0.0613
    ##  9       0.001              5     2 rmse    standard    1.11     5  0.0568
    ## 10       0.00001            5     2 rmse    standard    1.10     5  0.0591
    ## # ℹ 62 more rows
    ## # ℹ 1 more variable: .config <chr>
…
